Started at Wed Aug 07 12:55:30 UTC 2019
Cleaned up 0 records
Finished at Wed Aug 07 12:55:30 UTC 2019. 6ms
Started at Thu Aug 08 12:55:30 UTC 2019
Cleaned up 0 records
Finished at Thu Aug 08 12:55:30 UTC 2019. 1ms
