Started at Sun Aug 11 12:55:30 UTC 2019
Cleaned up 0 records
Finished at Sun Aug 11 12:55:30 UTC 2019. 1ms
Started at Mon Aug 12 12:55:30 UTC 2019
Cleaned up 0 records
Finished at Mon Aug 12 12:55:30 UTC 2019. 1ms
