Started at Fri Aug 09 12:55:30 UTC 2019
Cleaned up 0 records
Finished at Fri Aug 09 12:55:30 UTC 2019. 9ms
Started at Sat Aug 10 12:55:30 UTC 2019
Cleaned up 0 records
Finished at Sat Aug 10 12:55:30 UTC 2019. 1ms
