Started at Wed Aug 07 20:52:17 UTC 2019
Checking ansible-test
Finished at Wed Aug 07 20:52:17 UTC 2019. 9ms
Started at Thu Aug 08 20:52:17 UTC 2019
Checking ansible-test
Finished at Thu Aug 08 20:52:17 UTC 2019. 12ms
