Started at Sun Aug 11 20:52:17 UTC 2019
Checking ansible-test
Finished at Sun Aug 11 20:52:17 UTC 2019. 11ms
Started at Mon Aug 12 20:52:17 UTC 2019
Checking ansible-test
Finished at Mon Aug 12 20:52:17 UTC 2019. 7ms
