Started at Fri Aug 09 20:52:17 UTC 2019
Checking ansible-test
Finished at Fri Aug 09 20:52:17 UTC 2019. 13ms
Started at Sat Aug 10 20:52:17 UTC 2019
Checking ansible-test
Finished at Sat Aug 10 20:52:17 UTC 2019. 10ms
