Started at Sat Aug 03 20:52:17 UTC 2019
Checking ansible-test
Finished at Sat Aug 03 20:52:17 UTC 2019. 9ms
Started at Sun Aug 04 20:52:17 UTC 2019
Checking ansible-test
Finished at Sun Aug 04 20:52:17 UTC 2019. 8ms
