Started at Mon Aug 05 20:52:17 UTC 2019
Checking ansible-test
Finished at Mon Aug 05 20:52:17 UTC 2019. 7ms
Started at Tue Aug 06 20:52:17 UTC 2019
Checking ansible-test
Finished at Tue Aug 06 20:52:17 UTC 2019. 7ms
